{
	"total": 55,
	"page": 1,
	"_links": {
		"next" : {
			"href": "http://www.hautelooktest.com/page/second.json"
		},
		"previous": {
			"href": ""
		}
	},
	"items": [
    {
    "id": 1,
    "name": "GLEAMINK",
    "summary": "sunt labore",
    "_links": {
      "image": {
        "href": "https://www.hltestcdn.com/images/image-1.jpg"
      }
    }
  },
  {
    "id": 2,
    "name": "ZENTURY",
    "summary": "duis eiusmod tempor nulla aliqua",
    "_links": {
      "image": {
        "href": "https://www.hltestcdn.com/images/image-2.jpg"
      }
    }
  },
  {
    "id": 3,
    "name": "LYRICHORD",
    "summary": "veniam exercitation",
    "_links": {
      "image": {
        "href": "https://www.hltestcdn.com/images/image-3.jpg"
      }
    }
  },
  {
    "id": 4,
    "name": "CRUSTATIA",
    "summary": "dolor labore consectetur et fugiat",
    "_links": {
      "image": {
        "href": "https://www.hltestcdn.com/images/image-4.jpg"
      }
    }
  },
  {
    "id": 5,
    "name": "HARMONEY",
    "summary": "proident proident elit occaecat eu",
    "_links": {
      "image": {
        "href": "https://www.hltestcdn.com/images/image-5.jpg"
      }
    }
  },
  {
    "id": 6,
    "name": "MAXIMIND",
    "summary": "id deserunt voluptate id nisi",
    "_links": {
      "image": {
        "href": "https://www.hltestcdn.com/images/image-6.jpg"
      }
    }
  },
  {
    "id": 7,
    "name": "EXTRAWEAR",
    "summary": "enim reprehenderit",
    "_links": {
      "image": {
        "href": "https://www.hltestcdn.com/images/image-7.jpg"
      }
    }
  },
  {
    "id": 8,
    "name": "XIXAN",
    "summary": "ullamco do sint irure consequat",
    "_links": {
      "image": {
        "href": "https://www.hltestcdn.com/images/image-8.jpg"
      }
    }
  },
  {
    "id": 9,
    "name": "TELEQUIET",
    "summary": "proident culpa commodo exercitation exercitation",
    "_links": {
      "image": {
        "href": "https://www.hltestcdn.com/images/image-9.jpg"
      }
    }
  },
  {
    "id": 10,
    "name": "URBANSHEE",
    "summary": "dolor quis",
    "_links": {
      "image": {
        "href": "https://www.hltestcdn.com/images/image-10.jpg"
      }
    }
  },
  {
    "id": 11,
    "name": "OPPORTECH",
    "summary": "aute ea",
    "_links": {
      "image": {
        "href": "https://www.hltestcdn.com/images/image-11.jpg"
      }
    }
  },
  {
    "id": 12,
    "name": "EZENTIA",
    "summary": "laborum occaecat",
    "_links": {
      "image": {
        "href": "https://www.hltestcdn.com/images/image-12.jpg"
      }
    }
  },
  {
    "id": 13,
    "name": "ISODRIVE",
    "summary": "in officia elit dolore irure",
    "_links": {
      "image": {
        "href": "https://www.hltestcdn.com/images/image-13.jpg"
      }
    }
  },
  {
    "id": 14,
    "name": "POLARAX",
    "summary": "aliqua irure",
    "_links": {
      "image": {
        "href": "https://www.hltestcdn.com/images/image-14.jpg"
      }
    }
  },
  {
    "id": 15,
    "name": "ZOLAREX",
    "summary": "quis amet",
    "_links": {
      "image": {
        "href": "https://www.hltestcdn.com/images/image-15.jpg"
      }
    }
  },
  {
    "id": 16,
    "name": "CYTREX",
    "summary": "magna exercitation",
    "_links": {
      "image": {
        "href": "https://www.hltestcdn.com/images/image-16.jpg"
      }
    }
  },
  {
    "id": 17,
    "name": "EXOVENT",
    "summary": "aliquip pariatur ea dolor exercitation",
    "_links": {
      "image": {
        "href": "https://www.hltestcdn.com/images/image-17.jpg"
      }
    }
  },
  {
    "id": 18,
    "name": "GORGANIC",
    "summary": "non voluptate",
    "_links": {
      "image": {
        "href": "https://www.hltestcdn.com/images/image-18.jpg"
      }
    }
  },
  {
    "id": 19,
    "name": "CENTICE",
    "summary": "anim dolor",
    "_links": {
      "image": {
        "href": "https://www.hltestcdn.com/images/image-19.jpg"
      }
    }
  },
  {
    "id": 20,
    "name": "COMVEYOR",
    "summary": "officia culpa",
    "_links": {
      "image": {
        "href": "https://www.hltestcdn.com/images/image-20.jpg"
      }
    }
  }
]
}