{
	"total": 55,
	"page": 2,
	"_links": {
		"next" : {
			"href": "http://www.hautelooktest.com/page/third.json"
		},
		"previous": {
			"href": "http://www.hautelooktest.com/page/first.json"
		}
	},
	"items":[
  {
    "id": 21,
    "name": "UPDAT",
    "summary": "excepteur qui consectetur incididunt excepteur",
    "_links": {
      "image": {
        "href": "https://www.hltestcdn.com/images/image-21.jpg"
      }
    }
  },
  {
    "id": 22,
    "name": "TOYLETRY",
    "summary": "sunt mollit",
    "_links": {
      "image": {
        "href": "https://www.hltestcdn.com/images/image-22.jpg"
      }
    }
  },
  {
    "id": 23,
    "name": "BOILCAT",
    "summary": "magna ad",
    "_links": {
      "image": {
        "href": "https://www.hltestcdn.com/images/image-23.jpg"
      }
    }
  },
  {
    "id": 24,
    "name": "CUBIX",
    "summary": "minim sit do aute culpa",
    "_links": {
      "image": {
        "href": "https://www.hltestcdn.com/images/image-24.jpg"
      }
    }
  },
  {
    "id": 25,
    "name": "MYOPIUM",
    "summary": "commodo mollit",
    "_links": {
      "image": {
        "href": "https://www.hltestcdn.com/images/image-25.jpg"
      }
    }
  },
  {
    "id": 26,
    "name": "FLEXIGEN",
    "summary": "nulla do cupidatat in elit",
    "_links": {
      "image": {
        "href": "https://www.hltestcdn.com/images/image-26.jpg"
      }
    }
  },
  {
    "id": 27,
    "name": "EXTRAGENE",
    "summary": "deserunt veniam",
    "_links": {
      "image": {
        "href": "https://www.hltestcdn.com/images/image-27.jpg"
      }
    }
  },
  {
    "id": 28,
    "name": "OLUCORE",
    "summary": "aute nisi",
    "_links": {
      "image": {
        "href": "https://www.hltestcdn.com/images/image-28.jpg"
      }
    }
  },
  {
    "id": 29,
    "name": "OCTOCORE",
    "summary": "sint ad deserunt ipsum ex",
    "_links": {
      "image": {
        "href": "https://www.hltestcdn.com/images/image-29.jpg"
      }
    }
  },
  {
    "id": 30,
    "name": "SECURIA",
    "summary": "incididunt elit",
    "_links": {
      "image": {
        "href": "https://www.hltestcdn.com/images/image-30.jpg"
      }
    }
  },
  {
    "id": 31,
    "name": "STROZEN",
    "summary": "pariatur dolor eiusmod occaecat exercitation",
    "_links": {
      "image": {
        "href": "https://www.hltestcdn.com/images/image-31.jpg"
      }
    }
  },
  {
    "id": 32,
    "name": "ZANILLA",
    "summary": "cupidatat do commodo cupidatat reprehenderit",
    "_links": {
      "image": {
        "href": "https://www.hltestcdn.com/images/image-32.jpg"
      }
    }
  },
  {
    "id": 33,
    "name": "CONJURICA",
    "summary": "laborum culpa ipsum ad reprehenderit",
    "_links": {
      "image": {
        "href": "https://www.hltestcdn.com/images/image-33.jpg"
      }
    }
  },
  {
    "id": 34,
    "name": "PARCOE",
    "summary": "labore et mollit Lorem ipsum",
    "_links": {
      "image": {
        "href": "https://www.hltestcdn.com/images/image-34.jpg"
      }
    }
  },
  {
    "id": 35,
    "name": "PHUEL",
    "summary": "Lorem id",
    "_links": {
      "image": {
        "href": "https://www.hltestcdn.com/images/image-35.jpg"
      }
    }
  },
  {
    "id": 36,
    "name": "ELPRO",
    "summary": "deserunt esse et duis dolor",
    "_links": {
      "image": {
        "href": "https://www.hltestcdn.com/images/image-36.jpg"
      }
    }
  },
  {
    "id": 37,
    "name": "GRUPOLI",
    "summary": "reprehenderit sit ut elit esse",
    "_links": {
      "image": {
        "href": "https://www.hltestcdn.com/images/image-37.jpg"
      }
    }
  },
  {
    "id": 38,
    "name": "SPLINX",
    "summary": "nisi id aute velit nostrud",
    "_links": {
      "image": {
        "href": "https://www.hltestcdn.com/images/image-38.jpg"
      }
    }
  },
  {
    "id": 39,
    "name": "ZOLARITY",
    "summary": "ea laborum",
    "_links": {
      "image": {
        "href": "https://www.hltestcdn.com/images/image-39.jpg"
      }
    }
  },
  {
    "id": 40,
    "name": "ZOARERE",
    "summary": "nulla aute",
    "_links": {
      "image": {
        "href": "https://www.hltestcdn.com/images/image-40.jpg"
      }
    }
  }
]
}