{
	"total": 55,
	"page": 3,
	"_links": {
		"next" : {
			"href": ""
		},
		"previous": {
			"href": "http://www.hautelooktest.com/page/second.json"
		}
	},
	"items":[
  {
    "id": 41,
    "name": "TUBALUM",
    "summary": "minim deserunt",
    "_links": {
      "image": {
        "href": "https://www.hltestcdn.com/images/image-41.jpg"
      }
    }
  },
  {
    "id": 42,
    "name": "TURNABOUT",
    "summary": "do exercitation",
    "_links": {
      "image": {
        "href": "https://www.hltestcdn.com/images/image-42.jpg"
      }
    }
  },
  {
    "id": 43,
    "name": "APPLIDEC",
    "summary": "nostrud nisi",
    "_links": {
      "image": {
        "href": "https://www.hltestcdn.com/images/image-43.jpg"
      }
    }
  },
  {
    "id": 44,
    "name": "DECRATEX",
    "summary": "minim deserunt",
    "_links": {
      "image": {
        "href": "https://www.hltestcdn.com/images/image-44.jpg"
      }
    }
  },
  {
    "id": 45,
    "name": "ECRAZE",
    "summary": "proident qui",
    "_links": {
      "image": {
        "href": "https://www.hltestcdn.com/images/image-45.jpg"
      }
    }
  },
  {
    "id": 46,
    "name": "EWAVES",
    "summary": "et consectetur consequat laboris officia",
    "_links": {
      "image": {
        "href": "https://www.hltestcdn.com/images/image-46.jpg"
      }
    }
  },
  {
    "id": 47,
    "name": "UXMOX",
    "summary": "do eu ullamco non consectetur",
    "_links": {
      "image": {
        "href": "https://www.hltestcdn.com/images/image-47.jpg"
      }
    }
  },
  {
    "id": 48,
    "name": "MEDIFAX",
    "summary": "culpa aliquip",
    "_links": {
      "image": {
        "href": "https://www.hltestcdn.com/images/image-48.jpg"
      }
    }
  },
  {
    "id": 49,
    "name": "ROCKABYE",
    "summary": "excepteur laborum deserunt magna reprehenderit",
    "_links": {
      "image": {
        "href": "https://www.hltestcdn.com/images/image-49.jpg"
      }
    }
  },
  {
    "id": 50,
    "name": "NAVIR",
    "summary": "proident nisi",
    "_links": {
      "image": {
        "href": "https://www.hltestcdn.com/images/image-50.jpg"
      }
    }
  },
  {
    "id": 51,
    "name": "FISHLAND",
    "summary": "do est",
    "_links": {
      "image": {
        "href": "https://www.hltestcdn.com/images/image-51.jpg"
      }
    }
  },
  {
    "id": 52,
    "name": "XUMONK",
    "summary": "Lorem ea sint proident Lorem",
    "_links": {
      "image": {
        "href": "https://www.hltestcdn.com/images/image-52.jpg"
      }
    }
  },
  {
    "id": 53,
    "name": "REPETWIRE",
    "summary": "tempor tempor",
    "_links": {
      "image": {
        "href": "https://www.hltestcdn.com/images/image-53.jpg"
      }
    }
  },
  {
    "id": 54,
    "name": "MEMORA",
    "summary": "et tempor",
    "_links": {
      "image": {
        "href": "https://www.hltestcdn.com/images/image-54.jpg"
      }
    }
  },
  {
    "id": 55,
    "name": "PAPRICUT",
    "summary": "enim quis velit ullamco ad",
    "_links": {
      "image": {
        "href": "https://www.hltestcdn.com/images/image-55.jpg"
      }
    }
  }
]
}
